{
	"info": {
		"_postman_id": "45130557-c476-4e05-867f-a195d427d7f8",
		"name": "booking-api",
		"schema": "https://schema.getpostman.com/json/collection/v2.1.0/collection.json",
		"_exporter_id": "28316854",
		"_collection_link": "https://solar-equinox-544421.postman.co/workspace/Batch297~edb0dd1e-97b9-4651-9339-2b0fc842936d/collection/28316854-45130557-c476-4e05-867f-a195d427d7f8?action=share&creator=28316854&source=collection_link"
	},
	"item": [
		{
			"name": "user main route",
			"item": [
				{
					"name": "POST /register",
					"request": {
						"method": "POST",
						"header": [],
						"body": {
							"mode": "raw",
							"raw": "{\r\n    \"firstName\": \"ada\",\r\n    \"lastName\": \"lovelace\",\r\n    \"email\": \"ada@gmail.com\",\r\n    \"mobileNo\": \"09123456789\",\r\n    \"password\": \"password123\"\r\n}",
							"options": {
								"raw": {
									"language": "json"
								}
							}
						},
						"url": {
							"raw": "http://localhost:4000/users/register",
							"protocol": "http",
							"host": [
								"localhost"
							],
							"port": "4000",
							"path": [
								"users",
								"register"
							]
						}
					},
					"response": []
				},
				{
					"name": "POST /details",
					"request": {
						"auth": {
							"type": "bearer",
							"bearer": [
								{
									"key": "token",
									"value": "eyJhbGciOiJIUzI1NiIsInR5cCI6IkpXVCJ9.eyJpZCI6IjY0ZGEwMjU0MDc4NzM0NmIxYjg1MzA5OCIsImVtYWlsIjoiYWRhQGdtYWlsLmNvbSIsImlzQWRtaW4iOmZhbHNlLCJpYXQiOjE2OTIwODc0OTB9.wUEe1Q93PaZbbhsqraNdc-Ntl2oGcS0ZJb3Sk8Aouik",
									"type": "string"
								}
							]
						},
						"method": "POST",
						"header": [],
						"body": {
							"mode": "raw",
							"raw": "",
							"options": {
								"raw": {
									"language": "json"
								}
							}
						},
						"url": {
							"raw": "http://localhost:4000/users/details",
							"protocol": "http",
							"host": [
								"localhost"
							],
							"port": "4000",
							"path": [
								"users",
								"details"
							]
						}
					},
					"response": []
				},
				{
					"name": "POST /login",
					"request": {
						"method": "POST",
						"header": [],
						"body": {
							"mode": "raw",
							"raw": "{\r\n    \"email\": \"ada@gmail.com\",\r\n    \"password\": \"password123\"\r\n}",
							"options": {
								"raw": {
									"language": "json"
								}
							}
						},
						"url": {
							"raw": "http://localhost:4000/users/login",
							"protocol": "http",
							"host": [
								"localhost"
							],
							"port": "4000",
							"path": [
								"users",
								"login"
							]
						}
					},
					"response": []
				},
				{
					"name": "POST /login (admin)",
					"request": {
						"method": "POST",
						"header": [],
						"body": {
							"mode": "raw",
							"raw": "{\r\n    \"email\": \"admin@mail.com\",\r\n    \"password\": \"admin1234\"\r\n}",
							"options": {
								"raw": {
									"language": "json"
								}
							}
						},
						"url": {
							"raw": "http://localhost:4000/users/login",
							"protocol": "http",
							"host": [
								"localhost"
							],
							"port": "4000",
							"path": [
								"users",
								"login"
							]
						}
					},
					"response": []
				},
				{
					"name": "POST /enroll",
					"request": {
						"auth": {
							"type": "bearer",
							"bearer": [
								{
									"key": "token",
									"value": "eyJhbGciOiJIUzI1NiIsInR5cCI6IkpXVCJ9.eyJpZCI6IjY0ZGEwMjU0MDc4NzM0NmIxYjg1MzA5OCIsImVtYWlsIjoiYWRhQGdtYWlsLmNvbSIsImlzQWRtaW4iOmZhbHNlLCJpYXQiOjE2OTIwMDkxMTZ9.6zXF7woQILf3ttRhijFRBDqUqxsy4wYJ3V27mJJQZgw",
									"type": "string"
								}
							]
						},
						"method": "POST",
						"header": [],
						"body": {
							"mode": "raw",
							"raw": "{\n    \"courseId\": \"64d602d32788ccbf0bae7690\"\n}",
							"options": {
								"raw": {
									"language": "json"
								}
							}
						},
						"url": {
							"raw": "http://localhost:4000/users/enroll",
							"protocol": "http",
							"host": [
								"localhost"
							],
							"port": "4000",
							"path": [
								"users",
								"enroll"
							]
						}
					},
					"response": []
				}
			]
		},
		{
			"name": "course main route",
			"item": [
				{
					"name": "POST / (admin)",
					"request": {
						"auth": {
							"type": "bearer",
							"bearer": [
								{
									"key": "token",
									"value": "eyJhbGciOiJIUzI1NiIsInR5cCI6IkpXVCJ9.eyJpZCI6IjY0ZDU4Y2JjOTA4ZDFkZDk0ZmRkMDE5NyIsImVtYWlsIjoiYWRtaW5AbWFpbC5jb20iLCJpc0FkbWluIjp0cnVlLCJpYXQiOjE2OTE3MTY5Njh9.3oIYfJVtj5YYfJwOCBmBQ7wc02mgKQrbQBw7g03Yd1Y",
									"type": "string"
								}
							]
						},
						"method": "POST",
						"header": [],
						"body": {
							"mode": "raw",
							"raw": "{\r\n    \"name\":\"PHP Course\",\r\n    \"description\":\"With Ms. Cee\",\r\n    \"price\": 300\r\n}",
							"options": {
								"raw": {
									"language": "json"
								}
							}
						},
						"url": {
							"raw": "http://localhost:4000/courses",
							"protocol": "http",
							"host": [
								"localhost"
							],
							"port": "4000",
							"path": [
								"courses"
							]
						}
					},
					"response": []
				},
				{
					"name": "GET /all",
					"request": {
						"method": "GET",
						"header": [],
						"url": {
							"raw": "http://localhost:4000/courses/all",
							"protocol": "http",
							"host": [
								"localhost"
							],
							"port": "4000",
							"path": [
								"courses",
								"all"
							]
						}
					},
					"response": []
				},
				{
					"name": "GET /",
					"request": {
						"method": "GET",
						"header": [],
						"url": {
							"raw": "http://localhost:4000/courses",
							"protocol": "http",
							"host": [
								"localhost"
							],
							"port": "4000",
							"path": [
								"courses"
							]
						}
					},
					"response": []
				},
				{
					"name": "GET /:courseId",
					"request": {
						"method": "GET",
						"header": [],
						"url": {
							"raw": "http://localhost:4000/courses/64d602d32788ccbf0bae7690",
							"protocol": "http",
							"host": [
								"localhost"
							],
							"port": "4000",
							"path": [
								"courses",
								"64d602d32788ccbf0bae7690"
							]
						}
					},
					"response": []
				},
				{
					"name": "PUT /:courseId",
					"request": {
						"auth": {
							"type": "bearer",
							"bearer": [
								{
									"key": "token",
									"value": "eyJhbGciOiJIUzI1NiIsInR5cCI6IkpXVCJ9.eyJpZCI6IjY0ZDU4Y2JjOTA4ZDFkZDk0ZmRkMDE5NyIsImVtYWlsIjoiYWRtaW5AbWFpbC5jb20iLCJpc0FkbWluIjp0cnVlLCJpYXQiOjE2OTE3MTk5MDV9.xd_o6l-DFH4L4qZKUOoMfqtvbh_5ZCAnmTgbMp-l9Jo",
									"type": "string"
								}
							]
						},
						"method": "PUT",
						"header": [],
						"body": {
							"mode": "raw",
							"raw": "{\r\n    \"name\" : \"JavaScript\",\r\n    \"description\" : \"Making websites interactive since the 90's.\",\r\n    \"price\" : 2000\r\n}",
							"options": {
								"raw": {
									"language": "json"
								}
							}
						},
						"url": {
							"raw": "http://localhost:4000/courses/64d602d32788ccbf0bae7690",
							"protocol": "http",
							"host": [
								"localhost"
							],
							"port": "4000",
							"path": [
								"courses",
								"64d602d32788ccbf0bae7690"
							]
						}
					},
					"response": []
				},
				{
					"name": "PUT /:courseId/archive",
					"request": {
						"auth": {
							"type": "bearer",
							"bearer": [
								{
									"key": "token",
									"value": "eyJhbGciOiJIUzI1NiIsInR5cCI6IkpXVCJ9.eyJpZCI6IjY0ZDU4Y2JjOTA4ZDFkZDk0ZmRkMDE5NyIsImVtYWlsIjoiYWRtaW5AbWFpbC5jb20iLCJpc0FkbWluIjp0cnVlLCJpYXQiOjE2OTE3MTk5MDV9.xd_o6l-DFH4L4qZKUOoMfqtvbh_5ZCAnmTgbMp-l9Jo",
									"type": "string"
								}
							]
						},
						"method": "PUT",
						"header": [],
						"body": {
							"mode": "raw",
							"raw": "",
							"options": {
								"raw": {
									"language": "json"
								}
							}
						},
						"url": {
							"raw": "http://localhost:4000/courses/64d602d32788ccbf0bae7690/archive",
							"protocol": "http",
							"host": [
								"localhost"
							],
							"port": "4000",
							"path": [
								"courses",
								"64d602d32788ccbf0bae7690",
								"archive"
							]
						}
					},
					"response": []
				},
				{
					"name": "PUT /:courseId/activate",
					"request": {
						"auth": {
							"type": "bearer",
							"bearer": [
								{
									"key": "token",
									"value": "eyJhbGciOiJIUzI1NiIsInR5cCI6IkpXVCJ9.eyJpZCI6IjY0ZDU4Y2JjOTA4ZDFkZDk0ZmRkMDE5NyIsImVtYWlsIjoiYWRtaW5AbWFpbC5jb20iLCJpc0FkbWluIjp0cnVlLCJpYXQiOjE2OTE3MTk5MDV9.xd_o6l-DFH4L4qZKUOoMfqtvbh_5ZCAnmTgbMp-l9Jo",
									"type": "string"
								}
							]
						},
						"method": "PUT",
						"header": [],
						"body": {
							"mode": "raw",
							"raw": "{\r\n    \"name\":\"JavaScript by Jak\",\r\n    \"description\":\"Making websies interactive with Prof Jak\",\r\n    \"price\":200000\r\n}",
							"options": {
								"raw": {
									"language": "json"
								}
							}
						},
						"url": {
							"raw": "http://localhost:4000/courses/64d602d32788ccbf0bae7690/activate",
							"protocol": "http",
							"host": [
								"localhost"
							],
							"port": "4000",
							"path": [
								"courses",
								"64d602d32788ccbf0bae7690",
								"activate"
							]
						}
					},
					"response": []
				}
			]
		}
	]
}
